{
    "{'sellerid': '231651707', 'storeid': '0', 'currency': 'USD', 'region': 'US', 'locale': 'en_US', 'sort': 'default', 'page': 2, 'pagesize': 10}": {
        "error": "",
        "response": {
            "result": {
                "status": {
                    "data": "success",
                    "code": 200,
                    "executionTime": "0.34",
                    "requestTime": "2023-07-18 16:51:21",
                    "requestId": "bead75e12e9977b885f3d15cb1a1fcea",
                    "endpoint": "store_item_search",
                    "apiVersion": "3.2.4",
                    "functionsVersion": "3.0.8",
                    "la": "0.00",
                    "pmu": 458880,
                    "mu": 458560
                },
                "settings": {
                    "sellerId": "231651707",
                    "storeId": "0",
                    "sort": "default",
                    "page": "2",
                    "pageSize": "10",
                    "region": "US",
                    "locale": "en_US",
                    "currency": "USD"
                },
                "base": {
                    "currentPage": 2,
                    "totalPage": 13,
                    "totalResults": 126,
                    "sortValues": [
                        "default",
                        "salesDesc",
                        "priceAsc",
                        "priceDesc",
                        "latest"
                    ]
                },
                "resultList": [
                    {
                        "item": {
                            "itemId": 1005005681882007,
                            "title": "LU20 GPS Drone 8K Professional Dual ESC Camera Optical Flow Positioning Obstacle Avoidance Brushless RC Quadcopter 5000M",
                            "sales": null,
                            "image": "//ae04.alicdn.com/kf/Saef62856ba434f76b24e010464cf92adJ.jpg",
                            "sku": {
                                "def": {
                                    "price": 38.93,
                                    "promotionPrice": 38.93
                                }
                            },
                            "unit": "piece",
                            "unitsPerLot": 1,
                            "reviewCount": 0,
                            "averageStar": 0,
                            "averageStarRate": null
                        }
                    },
                    {
                        "item": {
                            "itemId": 1005005532778043,
                            "title": "2 IN 1 RC Tank Toy 2.4G Radio Control Car Water Bomb War Tank Remote Control Multiplayer Tank RC Toys for Boy Kids Gift",
                            "sales": null,
                            "image": "//ae04.alicdn.com/kf/S90d8aab29e2e4525abb5ee779b5c43b10.jpg",
                            "sku": {
                                "def": {
                                    "price": 46.97,
                                    "promotionPrice": 46.97
                                }
                            },
                            "unit": "piece",
                            "unitsPerLot": 1,
                            "reviewCount": 0,
                            "averageStar": 0,
                            "averageStarRate": null
                        }
                    },
                    {
                        "item": {
                            "itemId": 1005004837178560,
                            "title": "V25 RC Airplane with 480P Camera Quadcopter 2.4GHz RC Stunt Plane Gliding Aircraft Flight Toys with Function 360\u00b0 Tumbling Drone",
                            "sales": 2,
                            "image": "//ae04.alicdn.com/kf/S1cceb5a58c7842ed95c98d812c96f6970.jpg",
                            "sku": {
                                "def": {
                                    "price": 36.38,
                                    "promotionPrice": 36.38
                                }
                            },
                            "unit": "piece",
                            "unitsPerLot": 1,
                            "reviewCount": 0,
                            "averageStar": 0,
                            "averageStarRate": 0
                        }
                    }
                ]
            }
        }
    },
    "{'sellerid': '231651707', 'storeid': '1102051418'}": {
        "error": "",
        "response": "{'result': {'status': {'data': 'success', 'code': 200, 'attempt': 1, 'executionTime': '0.24', 'requestTime': '2024-11-01 13:44:49', 'requestId': '74d7e9782d1ea38b8f89dca3cbcaf22e', 'endpoint': 'store_item_search', 'apiVersion': '4.0.5', 'functionsVersion': '4.0.8', 'la': '0.09', 'pmu': 1202280, 'mu': 975744}, 'settings': {'sellerId': '231651707', 'storeId': '1102051418', 'sort': 'default', 'page': '1', 'pageSize': '20', 'region': 'US', 'locale': 'en_US', 'currency': 'USD'}, 'base': {'currentPage': 1, 'totalPages': 4, 'totalResults': 65, 'sortValues': ['default', 'salesDesc', 'priceAsc', 'priceDesc', 'latest']}, 'resultList': [{'item': {'itemId': 1005005270710686, 'title': 'SG-F22 4K RC Airplane 3D Stunt Plane Model 2.4G Remote Control Fighter Glider Electric Rc Aircraft Toys For Children Adults', 'sales': 6, 'image': '//ae-pic-a1.aliexpress-media.com/kf/Sdb174bc141244c46bcc83cad20c59d5an.jpg', 'sku': {'def': {'price': 61.85, 'promotionPrice': 53.85}}, 'unit': '', 'unitsPerLot': 0, 'reviewCount': 0, 'averageStar': 0, 'averageStarRate': 0}}, {'item': {'itemId': 1005004799728899, 'title': 'RC Plane SU57 Radio Control Airplane Light Fixed Wing Hand Throwing Su30 Foam Electric Remote Control Plane Toys for Children', 'sales': 9, 'image': '//ae-pic-a1.aliexpress-media.com/kf/S0eb3b1c1feaf4e898c9326e7532cc815i.jpg', 'sku': {'def': {'price': 21.09, 'promotionPrice': 13.09}}, 'unit': '', 'unitsPerLot': 0, 'reviewCount': 1, 'averageStar': 5, 'averageStarRate': 100}}, {'item': {'itemId': 1005006756003727, 'title': 'UDI RC Speedboat Jet Spray RC Boat 2.4G Remote Control Ship Waterproof RTR Brushless High-Speed Models Toys for Children', 'sales': 11, 'image': '//ae-pic-a1.aliexpress-media.com/kf/S0814a3f9b94f4ec3a596a68a3e1dd842x.jpg', 'sku': {'def': {'price': 81.75, 'promotionPrice': 66.94}}, 'unit': '', 'unitsPerLot': 0, 'reviewCount': 1, 'averageStar': 5, 'averageStarRate': 100}}, {'item': {'itemId': 1005005676417679, 'title': 'C186 RC Helicopter 2.4G 4CH 4 Propellers 6 Axis Electronic Gyroscope for Stabilization Remote Co"
    },
    "{'sellerid': '231651707', 'storeid': '1102051418', 'sort': 'bestselling', 'pagesize': 5}": {
        "error": "",
        "response": "{'result': {'status': {'data': 'success', 'code': 201, 'violations': {'sort': 'Invalid input parameter value.'}, 'attempt': 1, 'executionTime': '0.15', 'requestTime': '2025-06-02 15:00:31', 'requestId': '00e86c0bfd499b45672e2fbd6f1b25c3', 'endpoint': 'store_item_search', 'apiVersion': '4.0.5', 'functionsVersion': '4.0.8', 'la': '0.20', 'pmu': 578616, 'mu': 515440}, 'settings': {'sellerId': '231651707', 'storeId': '1102051418', 'sort': 'default', 'page': '1', 'pageSize': '5', 'region': 'US', 'locale': 'en_US', 'currency': 'USD'}, 'base': {'currentPage': 1, 'totalPages': 9, 'totalResults': 43, 'sortValues': ['default', 'salesDesc', 'priceAsc', 'priceDesc', 'latest']}, 'resultList': [{'item': {'itemId': 1005008353385254, 'title': 'F16 RC Fighter Plane 3CH EPP Foam 2.4G Remote Control Airplane with Axis Gyroscope Flight  Aircraft Model Toys for Children', 'sales': 3, 'image': '//ae-pic-a1.aliexpress-media.com/kf/Sb70035ce6a9d45cf964980c1ab0af271H.jpg', 'sku': {'def': {'price': 61.25, 'promotionPrice': 42.88}}, 'unit': '', 'unitsPerLot': 0, 'reviewCount': 2, 'averageStar': 3.5, 'averageStarRate': 70}}, {'item': {'itemId': 1005008810658960, 'title': '1/43 RC Drift Car 4x4 Off-road Remote Control Racing Vehicle 15km/h High Speed RTR with 7 Color LED Lights Cars Toys Kids Gift', 'sales': 2, 'image': '//ae-pic-a1.aliexpress-media.com/kf/S0d354a7703444ce18cb5b970cdb98b59s.jpg', 'sku': {'def': {'price': 42.51, 'promotionPrice': 29.76}}, 'unit': '', 'unitsPerLot': 0, 'reviewCount': 1, 'a"
    },
    "{'sellerid': '231651707', 'storeid': '1102051418', 'sort': 'salesDesc', 'pagesize': 5}": {
        "error": "",
        "response": "{'result': {'status': {'data': 'success', 'code': 200, 'attempt': 1, 'executionTime': '0.16', 'requestTime': '2025-06-02 15:05:18', 'requestId': 'e9c170c42ad7ac0f27113e186447a31e', 'endpoint': 'store_item_search', 'apiVersion': '4.0.5', 'functionsVersion': '4.0.8', 'la': '0.06', 'pmu': 597848, 'mu': 526528}, 'settings': {'sellerId': '231651707', 'storeId': '1102051418', 'sort': 'salesDesc', 'page': '1', 'pageSize': '5', 'region': 'US', 'locale': 'en_US', 'currency': 'USD'}, 'base': {'currentPage': 1, 'totalPages': 9, 'totalResults': 43, 'sortValues': ['default', 'salesDesc', 'priceAsc', 'priceDesc', 'latest']}, 'resultList': [{'item': {'itemId': 1005006855686046, 'title': 'Qidi560 Parts Remote Control Plane Accessories Brushless Motor /Receiver ESC /3.7g Servo /Remote Controller QIDI560 Battery etc.', 'sales': 122, 'image': '//ae-pic-a1.aliexpress-media.com/kf/S70a4b7455a0c4ff4b04d4bdff1abb9c2f.jpg', 'sku': {'def': {'price': 8.59, 'promotionPrice': 6.01}}, 'unit': '', 'unitsPerLot': 0, 'reviewCount': 37, 'averageStar': 4.8, 'averageStarRate': 95.7}}, {'item': {'itemId': 1005005685306804, 'title': 'QIDI550 RC Plane Parts Brushless Motor 3PCS 7.4V 600mAh Battery Receiver Propellers USB cable Remote Control Accessories', 'sales': 40, 'image': '//ae-pic-a1.aliexpress-media.com/kf/S2cb54ee26438413b827e2121ab145d01s.jpg', 'sku': {'def': {'price': 7.57, 'promotionPrice': 7.37}}, 'unit': '', 'unitsPerLot': 0, 'reviewCount': 5, 'averageStar': 5, 'averageStarRate': 100}}, {'item': {'it"
    },
    "{'sellerid': '231651707', 'storeid': '1102051418', 'sort': 'popularity', 'currency': 'USD'}": {
        "error": "",
        "response": "{'result': {'status': {'data': 'success', 'code': 201, 'violations': {'sort': 'Invalid input parameter value.'}, 'attempt': 1, 'executionTime': '0.21', 'requestTime': '2025-06-03 11:35:31', 'requestId': '7029606497c7e363d2e5b77018b2c649', 'endpoint': 'store_item_search', 'apiVersion': '4.0.5', 'functionsVersion': '4.0.8', 'la': '0.49', 'pmu': 1141608, 'mu': 928576}, 'settings': {'sellerId': '231651707', 'storeId': '1102051418', 'sort': 'default', 'page': '1', 'pageSize': '20', 'region': 'US', 'locale': 'en_US', 'currency': 'USD'}, 'base': {'currentPage': 1, 'totalPages': 3, 'totalResults': 44, 'sortValues': ['default', 'salesDesc', 'priceAsc', 'priceDesc', 'latest']}, 'resultList': [{'item': {'itemId': 1005008353385254, 'title': 'F16 RC Fighter Plane 3CH EPP Foam 2.4G Remote Control Airplane with Axis Gyroscope Flight  Aircraft Model Toys for Children', 'sales': 3, 'image': '//ae-pic-a1.aliexpress-media.com/kf/Sb70035ce6a9d45cf964980c1ab0af271H.jpg', 'sku': {'def': {'price': 61.34, 'promotionPrice': 42.94}}, 'unit': '', 'unitsPerLot': 0, 'reviewCount': 2, 'averageStar': 3.5, 'averageStarRate': 70}}, {'item': {'itemId': 1005008810658960, 'title': '1/43 RC Drift Car 4x4 Off-road Remote Control Racing Vehicle 15km/h High Speed RTR with 7 Color LED Lights Cars Toys Kids Gift', 'sales': 2, 'image': '//ae-pic-a1.aliexpress-media.com/kf/S0d354a7703444ce18cb5b970cdb98b59s.jpg', 'sku': {'def': {'price': 42.57, 'promotionPrice': 29.8}}, 'unit': '', 'unitsPerLot': 0, 'reviewCount': 1, '"
    },
    "{'sellerid': '231651707', 'storeid': '1102051418', 'sort': 'salesDesc', 'currency': 'USD'}": {
        "error": "",
        "response": "{'result': {'status': {'data': 'success', 'code': 200, 'attempt': 1, 'executionTime': '0.19', 'requestTime': '2025-06-03 11:38:53', 'requestId': 'e3a56cf7749e28afe17982dd11a82bbb', 'endpoint': 'store_item_search', 'apiVersion': '4.0.5', 'functionsVersion': '4.0.8', 'la': '0.06', 'pmu': 1139360, 'mu': 926328}, 'settings': {'sellerId': '231651707', 'storeId': '1102051418', 'sort': 'salesDesc', 'page': '1', 'pageSize': '20', 'region': 'US', 'locale': 'en_US', 'currency': 'USD'}, 'base': {'currentPage': 1, 'totalPages': 3, 'totalResults': 44, 'sortValues': ['default', 'salesDesc', 'priceAsc', 'priceDesc', 'latest']}, 'resultList': [{'item': {'itemId': 1005006855686046, 'title': 'Qidi560 Parts Remote Control Plane Accessories Brushless Motor /Receiver ESC /3.7g Servo /Remote Controller QIDI560 Battery etc.', 'sales': 120, 'image': '//ae-pic-a1.aliexpress-media.com/kf/S70a4b7455a0c4ff4b04d4bdff1abb9c2f.jpg', 'sku': {'def': {'price': 8.6, 'promotionPrice': 6.02}}, 'unit': '', 'unitsPerLot': 0, 'reviewCount': 37, 'averageStar': 4.8, 'averageStarRate': 95.7}}, {'item': {'itemId': 1005005685306804, 'title': 'QIDI550 RC Plane Parts Brushless Motor 3PCS 7.4V 600mAh Battery Receiver Propellers USB cable Remote Control Accessories', 'sales': 40, 'image': '//ae-pic-a1.aliexpress-media.com/kf/S2cb54ee26438413b827e2121ab145d01s.jpg', 'sku': {'def': {'price': 7.58, 'promotionPrice': 7.38}}, 'unit': '', 'unitsPerLot': 0, 'reviewCount': 5, 'averageStar': 5, 'averageStarRate': 100}}, {'item': {'itemId': 1005006744892888, 'title': 'RC Plane Parts for FX620 SU35 SU30 Accessories Spare Propeller Blade Landing Gear Landing Seat Battery Charger', 'sales': 39, 'image': '//ae-pic-a1.aliexpress-media.com/kf/Sa817d00940ab4df3b3cf4e97b74609faF.jpg', 'sku': {'def': {'price': 7.3, 'promotionPrice': 5.11}}, 'unit': '', 'unitsPerLot': 0, 'reviewCount': 9, 'averageStar': 3.7, 'averageStarRate': 73.3}}, {'item': {'itemId': 1005007791459375, 'title': 'FX9672 RC Plane 4CH 2.4G Wireless Remote Control Airplane Jet Concealed Culvert Design with Powerful"
    },
    "{'sellerid': '231651707', 'storeid': '1102051418', 'sort': 'sales', 'pagesize': 10}": {
        "error": "",
        "response": "{'result': {'status': {'data': 'success', 'code': 201, 'violations': {'sort': 'Invalid input parameter value.'}, 'attempt': 1, 'executionTime': '0.19', 'requestTime': '2025-06-03 19:18:36', 'requestId': '6371e3c49c7d36a95127b06fecfebbbb', 'endpoint': 'store_item_search', 'apiVersion': '4.0.5', 'functionsVersion': '4.0.8', 'la': '0.17', 'pmu': 755400, 'mu': 645616}, 'settings': {'sellerId': '231651707', 'storeId': '1102051418', 'sort': 'default', 'page': '1', 'pageSize': '10', 'region': 'US', 'locale': 'en_US', 'currency': 'USD'}, 'base': {'currentPage': 1, 'totalPages': 5, 'totalResults': 46, 'sortValues': ['default', 'salesDesc', 'priceAsc', 'priceDesc', 'latest']}, 'resultList': [{'item': {'itemId': 1005008353385254, 'title': 'F16 RC Fighter Plane 3CH EPP Foam 2.4G Remote Control Airplane with Axis Gyroscope Flight  Aircraft Model Toys for Children', 'sales': 3, 'image': '//ae-pic-a1.aliexpress-media.com/kf/Sb70035ce6a9d45cf964980c1ab0af271H.jpg', 'sku': {'def': {'price': 61.34, 'promotionPrice': 42.94}}, 'unit': '', 'unitsPerLot': 0, 'reviewCount': 2, 'averageStar': 3.5, 'averageStarRate': 70}}, {'item': {'itemId': 1005008784071929, 'title': 'K13 Max RC Quadcopter 2.4G 4K Remote Control with Screen Drone Dual Camera Aerial Photography Brushless Drone Toys for Children', 'sales': 1, 'image': '//ae-pic-a1.aliexpress-media.com/kf/S4174d9198a624e6591a164ffa71b78de5.jpg', 'sku': {'def': {'price': 48.13, 'promotionPrice': 33.69}}, 'unit': '', 'unitsPerLot': 0, 'reviewCount': 0, "
    },
    "{'sellerid': '231651707', 'storeid': '1102051418', 'sort': 'salesDesc', 'pagesize': 20}": {
        "error": "",
        "response": "{'result': {'status': {'data': 'success', 'code': 200, 'attempt': 1, 'executionTime': '0.17', 'requestTime': '2025-06-03 19:21:38', 'requestId': 'e23decdc8aafa0bb43465fccdb904257', 'endpoint': 'store_item_search', 'apiVersion': '4.0.5', 'functionsVersion': '4.0.8', 'la': '0.07', 'pmu': 1136744, 'mu': 923712}, 'settings': {'sellerId': '231651707', 'storeId': '1102051418', 'sort': 'salesDesc', 'page': '1', 'pageSize': '20', 'region': 'US', 'locale': 'en_US', 'currency': 'USD'}, 'base': {'currentPage': 1, 'totalPages': 3, 'totalResults': 46, 'sortValues': ['default', 'salesDesc', 'priceAsc', 'priceDesc', 'latest']}, 'resultList': [{'item': {'itemId': 1005006855686046, 'title': 'Qidi560 Parts Remote Control Plane Accessories Brushless Motor /Receiver ESC /3.7g Servo /Remote Controller QIDI560 Battery etc.', 'sales': 120, 'image': '//ae-pic-a1.aliexpress-media.com/kf/S70a4b7455a0c4ff4b04d4bdff1abb9c2f.jpg', 'sku': {'def': {'price': 8.6, 'promotionPrice': 6.02}}, 'unit': '', 'unitsPerLot': 0, 'reviewCount': 37, 'averageStar': 4.8, 'averageStarRate': 95.7}}, {'item': {'itemId': 1005005685306804, 'title': 'QIDI550 RC Plane Parts Brushless Motor 3PCS 7.4V 600mAh Battery Receiver Propellers USB cable Remote Control Accessories', 'sales': 40, 'image': '//ae-pic-a1.aliexpress-media.com/kf/S2cb54ee26438413b827e2121ab145d01s.jpg', 'sku': {'def': {'price': 7.58, 'promotionPrice': 7.38}}, 'unit': '', 'unitsPerLot': 0, 'reviewCount': 5, 'averageStar': 5, 'averageStarRate': 100}}, {'item': {'i"
    },
    "{'sellerid': '231651707', 'storeid': '1102051418', 'sort': 'salesDesc', 'pagesize': 10, 'region': 'US', 'locale': 'en_US', 'currency': 'USD'}": {
        "error": "",
        "response": "{'result': {'status': {'data': 'success', 'code': 200, 'attempt': 1, 'executionTime': '0.16', 'requestTime': '2025-06-03 19:28:05', 'requestId': '0c6b975cf2a366fa2fecf35f946c9181', 'endpoint': 'store_item_search', 'apiVersion': '4.0.5', 'functionsVersion': '4.0.8', 'la': '0.08', 'pmu': 766376, 'mu': 655696}, 'settings': {'sellerId': '231651707', 'storeId': '1102051418', 'sort': 'salesDesc', 'page': '1', 'pageSize': '10', 'region': 'US', 'locale': 'en_US', 'currency': 'USD'}, 'base': {'currentPage': 1, 'totalPages': 5, 'totalResults': 46, 'sortValues': ['default', 'salesDesc', 'priceAsc', 'priceDesc', 'latest']}, 'resultList': [{'item': {'itemId': 1005006855686046, 'title': 'Qidi560 Parts Remote Control Plane Accessories Brushless Motor /Receiver ESC /3.7g Servo /Remote Controller QIDI560 Battery etc.', 'sales': 120, 'image': '//ae-pic-a1.aliexpress-media.com/kf/S70a4b7455a0c4ff4b04d4bdff1abb9c2f.jpg', 'sku': {'def': {'price': 8.6, 'promotionPrice': 6.02}}, 'unit': '', 'unitsPerLot': 0, 'reviewCount': 37, 'averageStar': 4.8, 'averageStarRate': 95.7}}, {'item': {'itemId': 1005005685306804, 'title': 'QIDI550 RC Plane Parts Brushless Motor 3PCS 7.4V 600mAh Battery Receiver Propellers USB cable Remote Control Accessories', 'sales': 40, 'image': '//ae-pic-a1.aliexpress-media.com/kf/S2cb54ee26438413b827e2121ab145d01s.jpg', 'sku': {'def': {'price': 7.58, 'promotionPrice': 7.38}}, 'unit': '', 'unitsPerLot': 0, 'reviewCount': 5, 'averageStar': 5, 'averageStarRate': 100}}, {'item': {'it"
    },
    "{'sellerid': '231651707', 'storeid': '1102051418', 'sort': 'salesDesc', 'pagesize': 10, 'page': 2, 'region': 'US', 'locale': 'en_US', 'currency': 'USD'}": {
        "error": "",
        "response": "{'result': {'status': {'data': 'success', 'code': 200, 'attempt': 1, 'executionTime': '0.16', 'requestTime': '2025-06-03 19:35:14', 'requestId': 'dfbdb43c8287f71f5f266eccfef2b382', 'endpoint': 'store_item_search', 'apiVersion': '4.0.5', 'functionsVersion': '4.0.8', 'la': '0.30', 'pmu': 766096, 'mu': 656296}, 'settings': {'sellerId': '231651707', 'storeId': '1102051418', 'sort': 'salesDesc', 'page': '2', 'pageSize': '10', 'region': 'US', 'locale': 'en_US', 'currency': 'USD'}, 'base': {'currentPage': 2, 'totalPages': 5, 'totalResults': 46, 'sortValues': ['default', 'salesDesc', 'priceAsc', 'priceDesc', 'latest']}, 'resultList': [{'item': {'itemId': 1005005377855554, 'title': 'FX9630 RC Plane J20 Fighter Remote Control Airplane Anti-collision Soft Rubber Head Glider with Culvert Design Aircraft RC Toys', 'sales': 6, 'image': '//ae-pic-a1.aliexpress-media.com/kf/Sf6c8e6eb10564ca3ba5da4b89665e858l.jpg', 'sku': {'def': {'price': 112.72, 'promotionPrice': 78.9}}, 'unit': '', 'unitsPerLot': 0, 'reviewCount': 0, 'averageStar': 0, 'averageStarRate': 0}}, {'item': {'itemId': 1005004803457243, 'title': 'FX651 RC Plane Eagle Airplane Wingspan Glider 2.4G Radio Remote Control Aircraft EPP Foam Toys for Children Boys', 'sales': 4, 'image': '//ae-pic-a1.aliexpress-media.com/kf/Se728c9034b724dffbb7cd0d226abe1297.jpg', 'sku': {'def': {'price': 24.02, 'promotionPrice': 23.82}}, 'unit': '', 'unitsPerLot': 0, 'reviewCount': 0, 'averageStar': 0, 'averageStarRate': 0}}, {'item': {'itemId': 10050090"
    }
}