{
    "{}": {
        "error": "",
        "response": {
            "page": 1,
            "total_items": 83,
            "total_pages": 2,
            "total": 50,
            "data": [
                {
                    "id": "nbfudk8iaq5l519",
                    "zone_name": "Asia/Kabul",
                    "tz_name": "Afghanistan Time",
                    "gmt_offset_name": "UTC+04:30",
                    "gmt_offset": 16200,
                    "abbreviation": "AFT"
                },
                {
                    "id": "5pmev25uqsmvm8g",
                    "zone_name": "Asia/Yerevan",
                    "tz_name": "Armenia Time",
                    "gmt_offset_name": "UTC+04:00",
                    "gmt_offset": 14400,
                    "abbreviation": "AMT"
                },
                {
                    "id": "biud917myxkvey3",
                    "zone_name": "Asia/Baku",
                    "tz_name": "Azerbaijan Time",
                    "gmt_offset_name": "UTC+04:00",
                    "gmt_offset": 14400,
                    "abbreviation": "AZT"
                },
                {
                    "id": "0yl817w7mkoxp1y",
                    "zone_name": "Asia/Bahrain",
                    "tz_name": "Arabia Standard Time",
                    "gmt_offset_name": "UTC+03:00",
                    "gmt_offset": 10800,
                    "abbreviation": "AST"
                },
                {
                    "id": "whva1xcxcxqgz9c",
                    "zone_name": "Asia/Dhaka",
                    "tz_name": "Bangladesh Standard Time",
                    "gmt_offset_name": "UTC+06:00",
                    "gmt_offset": 21600,
                    "abbreviation": "BDT"
                },
                {
                    "id": "1u6d6r4brj7j2gx",
                    "zone_name": "Asia/Thimphu",
                    "tz_name": "Bhutan Time",
                    "gmt_offset_name": "UTC+06:00",
                    "gmt_offset": 21600,
                    "abbreviation": "BTT"
                },
                {
                    "id": "k4otrjiqdwaku29",
                    "zone_name": "Asia/Brunei",
                    "tz_name": "Brunei Darussalam Time",
                    "gmt_offset_name": "UTC+08:00",
                    "gmt_offset": 28800,
                    "abbreviation": "BNT"
                },
                {
                    "id": "uwte8oz4ubcd6sv",
                    "zone_name": "Asia/Phnom_Penh",
                    "tz_name": "Indochina Time",
                    "gmt_offset_name": "UTC+07:00",
                    "gmt_offset": 25200,
                    "abbreviation": "ICT"
                },
                {
                    "id": "35sighs3jtb2sjo",
                    "zone_name": "Asia/Shanghai",
                    "tz_name": "China Standard Time",
                    "gmt_offset_name": "UTC+08:00",
                    "gmt_offset": 28800,
                    "abbreviation": "CST"
                },
                {
                    "id": "52caednxdaxlaa8",
                    "zone_name": "Asia/Urumqi",
                    "tz_name": "China Standard Time",
                    "gmt_offset_name": "UTC+06:00",
                    "gmt_offset": 21600,
                    "abbreviation": "XJT"
                },
                {
                    "id": "20nd3qdh9q5mq2t",
                    "zone_name": "Asia/Famagusta",
                    "tz_name": "Eastern European Time",
                    "gmt_offset_name": "UTC+02:00",
                    "gmt_offset": 7200,
                    "abbreviation": "EET"
                },
                {
                    "id": "iilr1sgnywa92v8",
                    "zone_name": "Asia/Nicosia",
                    "tz_name": "Eastern European Time",
                    "gmt_offset_name": "UTC+02:00",
                    "gmt_offset": 7200,
                    "abbreviation": "EET"
                },
                {
                    "id": "pd152kj7b0vwrzk",
                    "zone_name": "Asia/Dili",
                    "tz_name": "Timor Leste Time",
                    "gmt_offset_name": "UTC+09:00",
                    "gmt_offset": 32400,
                    "abbreviation": "TLT"
                },
                {
                    "id": "7n173pznfywrfo3",
                    "zone_name": "Asia/Tbilisi",
                    "tz_name": "Georgia Standard Time",
                    "gmt_offset_name": "UTC+04:00",
                    "gmt_offset": 14400,
                    "abbreviation": "GET"
                },
                {
                    "id": "at24zx8fh50b5sy",
                    "zone_name": "Asia/Hong_Kong",
                    "tz_name": "Hong Kong Time",
                    "gmt_offset_name": "UTC+08:00",
                    "gmt_offset": 28800,
                    "abbreviation": "HKT"
                },
                {
                    "id": "nnqbe83562fk6pr",
                    "zone_name": "Asia/Kolkata",
                    "tz_name": "Indian Standard Time",
                    "gmt_offset_name": "UTC+05:30",
                    "gmt_offset": 19800,
                    "abbreviation": "IST"
                },
                {
                    "id": "fjm4pceij7mdfvj",
                    "zone_name": "Asia/Jakarta",
                    "tz_name": "Western Indonesian Time",
                    "gmt_offset_name": "UTC+07:00",
                    "gmt_offset": 25200,
                    "abbreviation": "WIB"
                },
                {
                    "id": "xnn9hz11par2swr",
                    "zone_name": "Asia/Jayapura",
                    "tz_name": "Eastern Indonesian Time",
                    "gmt_offset_name": "UTC+09:00",
                    "gmt_offset": 32400,
                    "abbreviation": "WIT"
                },
                {
                    "id": "dbnvjxgczvmbea9",
                    "zone_name": "Asia/Makassar",
                    "tz_name": "Central Indonesia Time",
                    "gmt_offset_name": "UTC+08:00",
                    "gmt_offset": 28800,
                    "abbreviation": "WITA"
                },
                {
                    "id": "p02hwuz2n5o627d",
                    "zone_name": "Asia/Pontianak",
                    "tz_name": "Western Indonesian Time",
                    "gmt_offset_name": "UTC+07:00",
                    "gmt_offset": 25200,
                    "abbreviation": "WIB"
                },
                {
                    "id": "5h9swlsq4xo2t3z",
                    "zone_name": "Asia/Tehran",
                    "tz_name": "Iran Daylight Time",
                    "gmt_offset_name": "UTC+03:30",
                    "gmt_offset": 12600,
                    "abbreviation": "IRDT"
                },
                {
                    "id": "j50j1a17kmgcxcs",
                    "zone_name": "Asia/Baghdad",
                    "tz_name": "Arabia Standard Time",
                    "gmt_offset_name": "UTC+03:00",
                    "gmt_offset": 10800,
                    "abbreviation": "AST"
                },
                {
                    "id": "4nn42h1urox3e4r",
                    "zone_name": "Asia/Jerusalem",
                    "tz_name": "Israel Standard Time",
                    "gmt_offset_name": "UTC+02:00",
                    "gmt_offset": 7200,
                    "abbreviation": "IST"
                },
                {
                    "id": "jp8m448bonrtbij",
                    "zone_name": "Asia/Tokyo",
                    "tz_name": "Japan Standard Time",
                    "gmt_offset_name": "UTC+09:00",
                    "gmt_offset": 32400,
                    "abbreviation": "JST"
                },
                {
                    "id": "f5h233j7g5amdz4",
                    "zone_name": "Asia/Amman",
                    "tz_name": "Eastern European Time",
                    "gmt_offset_name": "UTC+02:00",
                    "gmt_offset": 7200,
                    "abbreviation": "EET"
                },
                {
                    "id": "k6s1hodn6wd9dby",
                    "zone_name": "Asia/Almaty",
                    "tz_name": "Alma-Ata Time[1",
                    "gmt_offset_name": "UTC+06:00",
                    "gmt_offset": 21600,
                    "abbreviation": "ALMT"
                },
                {
                    "id": "1piqwwghxnk5z2t",
                    "zone_name": "Asia/Aqtau",
                    "tz_name": "Aqtobe Time",
                    "gmt_offset_name": "UTC+05:00",
                    "gmt_offset": 18000,
                    "abbreviation": "AQTT"
                },
                {
                    "id": "jj5qkq7kacvjdvc",
                    "zone_name": "Asia/Aqtobe",
                    "tz_name": "Aqtobe Time",
                    "gmt_offset_name": "UTC+05:00",
                    "gmt_offset": 18000,
                    "abbreviation": "AQTT"
                },
                {
                    "id": "uu3kqbvnz56q8av",
                    "zone_name": "Asia/Atyrau",
                    "tz_name": "Moscow Daylight Time+1",
                    "gmt_offset_name": "UTC+05:00",
                    "gmt_offset": 18000,
                    "abbreviation": "MSD+1"
                },
                {
                    "id": "5mfepc2qx7c7jdk",
                    "zone_name": "Asia/Oral",
                    "tz_name": "Oral Time",
                    "gmt_offset_name": "UTC+05:00",
                    "gmt_offset": 18000,
                    "abbreviation": "ORAT"
                },
                {
                    "id": "nu2bapvyc1xwhjv",
                    "zone_name": "Asia/Qostanay",
                    "tz_name": "Qyzylorda Summer Time",
                    "gmt_offset_name": "UTC+06:00",
                    "gmt_offset": 21600,
                    "abbreviation": "QYZST"
                },
                {
                    "id": "72qp114notubnbr",
                    "zone_name": "Asia/Qyzylorda",
                    "tz_name": "Qyzylorda Summer Time",
                    "gmt_offset_name": "UTC+05:00",
                    "gmt_offset": 18000,
                    "abbreviation": "QYZT"
                },
                {
                    "id": "6ksvqttucm6sktv",
                    "zone_name": "Asia/Kuwait",
                    "tz_name": "Arabia Standard Time",
                    "gmt_offset_name": "UTC+03:00",
                    "gmt_offset": 10800,
                    "abbreviation": "AST"
                },
                {
                    "id": "z6te999a16evjqv",
                    "zone_name": "Asia/Bishkek",
                    "tz_name": "Kyrgyzstan Time",
                    "gmt_offset_name": "UTC+06:00",
                    "gmt_offset": 21600,
                    "abbreviation": "KGT"
                },
                {
                    "id": "9yipzcc3qatbxrl",
                    "zone_name": "Asia/Vientiane",
                    "tz_name": "Indochina Time",
                    "gmt_offset_name": "UTC+07:00",
                    "gmt_offset": 25200,
                    "abbreviation": "ICT"
                },
                {
                    "id": "3i6udp8z2mzukd4",
                    "zone_name": "Asia/Beirut",
                    "tz_name": "Eastern European Time",
                    "gmt_offset_name": "UTC+02:00",
                    "gmt_offset": 7200,
                    "abbreviation": "EET"
                },
                {
                    "id": "53hshui2dkhcdm1",
                    "zone_name": "Asia/Macau",
                    "tz_name": "China Standard Time",
                    "gmt_offset_name": "UTC+08:00",
                    "gmt_offset": 28800,
                    "abbreviation": "CST"
                },
                {
                    "id": "z1kfox53s9wilpm",
                    "zone_name": "Asia/Kuala_Lumpur",
                    "tz_name": "Malaysia Time",
                    "gmt_offset_name": "UTC+08:00",
                    "gmt_offset": 28800,
                    "abbreviation": "MYT"
                },
                {
                    "id": "156l8sq0cmix8js",
                    "zone_name": "Asia/Kuching",
                    "tz_name": "Malaysia Time",
                    "gmt_offset_name": "UTC+08:00",
                    "gmt_offset": 28800,
                    "abbreviation": "MYT"
                },
                {
                    "id": "kwp7a0w7u63yow1",
                    "zone_name": "Asia/Choibalsan",
                    "tz_name": "Choibalsan Standard Time",
                    "gmt_offset_name": "UTC+08:00",
                    "gmt_offset": 28800,
                    "abbreviation": "CHOT"
                },
                {
                    "id": "6phiv6qfn2kszsu",
                    "zone_name": "Asia/Hovd",
                    "tz_name": "Hovd Time",
                    "gmt_offset_name": "UTC+07:00",
                    "gmt_offset": 25200,
                    "abbreviation": "HOVT"
                },
                {
                    "id": "y9cdvm93g3dgh35",
                    "zone_name": "Asia/Ulaanbaatar",
                    "tz_name": "Ulaanbaatar Standard Time",
                    "gmt_offset_name": "UTC+08:00",
                    "gmt_offset": 28800,
                    "abbreviation": "ULAT"
                },
                {
                    "id": "6y83csgki3qb3h4",
                    "zone_name": "Asia/Yangon",
                    "tz_name": "Myanmar Standard Time",
                    "gmt_offset_name": "UTC+06:30",
                    "gmt_offset": 23400,
                    "abbreviation": "MMT"
                },
                {
                    "id": "fsb04drg1a44din",
                    "zone_name": "Asia/Kathmandu",
                    "tz_name": "Nepal Time",
                    "gmt_offset_name": "UTC+05:45",
                    "gmt_offset": 20700,
                    "abbreviation": "NPT"
                },
                {
                    "id": "9ehuns5z3zgl3vg",
                    "zone_name": "Asia/Pyongyang",
                    "tz_name": "Korea Standard Time",
                    "gmt_offset_name": "UTC+09:00",
                    "gmt_offset": 32400,
                    "abbreviation": "KST"
                },
                {
                    "id": "8njqbl036kvzbv8",
                    "zone_name": "Asia/Muscat",
                    "tz_name": "Gulf Standard Time",
                    "gmt_offset_name": "UTC+04:00",
                    "gmt_offset": 14400,
                    "abbreviation": "GST"
                },
                {
                    "id": "3n0csotfrwovd8l",
                    "zone_name": "Asia/Karachi",
                    "tz_name": "Pakistan Standard Time",
                    "gmt_offset_name": "UTC+05:00",
                    "gmt_offset": 18000,
                    "abbreviation": "PKT"
                },
                {
                    "id": "5o1u95v56b4botl",
                    "zone_name": "Asia/Gaza",
                    "tz_name": "Eastern European Time",
                    "gmt_offset_name": "UTC+02:00",
                    "gmt_offset": 7200,
                    "abbreviation": "EET"
                },
                {
                    "id": "521d8iq2pcegnac",
                    "zone_name": "Asia/Hebron",
                    "tz_name": "Eastern European Time",
                    "gmt_offset_name": "UTC+02:00",
                    "gmt_offset": 7200,
                    "abbreviation": "EET"
                },
                {
                    "id": "lswhmjc0pqwp3lk",
                    "zone_name": "Asia/Manila",
                    "tz_name": "Philippine Time",
                    "gmt_offset_name": "UTC+08:00",
                    "gmt_offset": 28800,
                    "abbreviation": "PHT"
                }
            ]
        }
    },
    "{'keyword': 'asia', 'page': 1, 'perpage': 50}": {
        "error": "",
        "response": "{'page': 1, 'total_items': 83, 'total_pages': 2, 'total': 50, 'data': [{'id': 'nbfudk8iaq5l519', 'zone_name': 'Asia/Kabul', 'tz_name': 'Afghanistan Time', 'gmt_offset_name': 'UTC+04:30', 'gmt_offset': 16200, 'abbreviation': 'AFT'}, {'id': '5pmev25uqsmvm8g', 'zone_name': 'Asia/Yerevan', 'tz_name': 'Armenia Time', 'gmt_offset_name': 'UTC+04:00', 'gmt_offset': 14400, 'abbreviation': 'AMT'}, {'id': 'biud917myxkvey3', 'zone_name': 'Asia/Baku', 'tz_name': 'Azerbaijan Time', 'gmt_offset_name': 'UTC+04:00', 'gmt_offset': 14400, 'abbreviation': 'AZT'}, {'id': '0yl817w7mkoxp1y', 'zone_name': 'Asia/Bahrain', 'tz_name': 'Arabia Standard Time', 'gmt_offset_name': 'UTC+03:00', 'gmt_offset': 10800, 'abbreviation': 'AST'}, {'id': 'whva1xcxcxqgz9c', 'zone_name': 'Asia/Dhaka', 'tz_name': 'Bangladesh Standard Time', 'gmt_offset_name': 'UTC+06:00', 'gmt_offset': 21600, 'abbreviation': 'BDT'}, {'id': '1u6d6r4brj7j2gx', 'zone_name': 'Asia/Thimphu', 'tz_name': 'Bhutan Time', 'gmt_offset_name': 'UTC+06:00', 'gmt_offset': 21600, 'abbreviation': 'BTT'}, {'id': 'k4otrjiqdwaku29', 'zone_name': 'Asia/Brunei', 'tz_name': 'Brunei Darussalam Time', 'gmt_offset_name': 'UTC+08:00', 'gmt_offset': 28800, 'abbreviation': 'BNT'}, {'id': 'uwte8oz4ubcd6sv', 'zone_name': 'Asia/Phnom_Penh', 'tz_name': 'Indochina Time', 'gmt_offset_name': 'UTC+07:00', 'gmt_offset': 25200, 'abbreviation': 'ICT'}, {'id': '35sighs3jtb2sjo', 'zone_name': 'Asia/Shanghai', 'tz_name': 'China Standard Time', 'gmt_offset_name': 'UTC+08:00', 'gmt_offset': 28800, 'abbreviation': 'CST'}, {'id': '52caednxdaxlaa8', 'zone_name': 'Asia/Urumqi', 'tz_name': 'China Standard Time', 'gmt_offset_name': 'UTC+06:00', 'gmt_offset': 21600, 'abbreviation': 'XJT'}, {'id': '20nd3qdh9q5mq2t', 'zone_name': 'Asia/Famagusta', 'tz_name': 'Eastern European Time', 'gmt_offset_name': 'UTC+02:00', 'gmt_offset': 7200, 'abbreviation': 'EET'}, {'id': 'iilr1sgnywa92v8', 'zone_name': 'Asia/Nicosia', 'tz_name': 'Eastern European Time', 'gmt_offset_name': 'UTC+02:00', 'gmt_offset': 7200, 'abbreviation': 'EET'}, {'id"
    },
    "{'keyword': 'Kuala Lumpur', 'page': 1, 'perpage': 1}": {
        "error": "",
        "response": "{'page': 1, 'total_items': 0, 'total_pages': 0, 'total': 0, 'data': []}"
    },
    "{'keyword': 'Tokyo', 'page': 1, 'perpage': 1}": {
        "error": "",
        "response": "{'page': 1, 'total_items': 1, 'total_pages': 1, 'total': 1, 'data': [{'id': 'jp8m448bonrtbij', 'zone_name': 'Asia/Tokyo', 'tz_name': 'Japan Standard Time', 'gmt_offset_name': 'UTC+09:00', 'gmt_offset': 32400, 'abbreviation': 'JST'}]}"
    },
    "{'keyword': 'Dubai', 'page': 1, 'perpage': 1}": {
        "error": "",
        "response": "{'page': 1, 'total_items': 1, 'total_pages': 1, 'total': 1, 'data': [{'id': '1cmsce6l4euvkeg', 'zone_name': 'Asia/Dubai', 'tz_name': 'Gulf Standard Time', 'gmt_offset_name': 'UTC+04:00', 'gmt_offset': 14400, 'abbreviation': 'GST'}]}"
    },
    "{'keyword': 'asia'}": {
        "error": "",
        "response": "{'page': 1, 'total_items': 83, 'total_pages': 2, 'total': 50, 'data': [{'id': 'nbfudk8iaq5l519', 'zone_name': 'Asia/Kabul', 'tz_name': 'Afghanistan Time', 'gmt_offset_name': 'UTC+04:30', 'gmt_offset': 16200, 'abbreviation': 'AFT'}, {'id': '5pmev25uqsmvm8g', 'zone_name': 'Asia/Yerevan', 'tz_name': 'Armenia Time', 'gmt_offset_name': 'UTC+04:00', 'gmt_offset': 14400, 'abbreviation': 'AMT'}, {'id': 'biud917myxkvey3', 'zone_name': 'Asia/Baku', 'tz_name': 'Azerbaijan Time', 'gmt_offset_name': 'UTC+04:00', 'gmt_offset': 14400, 'abbreviation': 'AZT'}, {'id': '0yl817w7mkoxp1y', 'zone_name': 'Asia/Bahrain', 'tz_name': 'Arabia Standard Time', 'gmt_offset_name': 'UTC+03:00', 'gmt_offset': 10800, 'abbreviation': 'AST'}, {'id': 'whva1xcxcxqgz9c', 'zone_name': 'Asia/Dhaka', 'tz_name': 'Bangladesh Standard Time', 'gmt_offset_name': 'UTC+06:00', 'gmt_offset': 21600, 'abbreviation': 'BDT'}, {'id': '1u6d6r4brj7j2gx', 'zone_name': 'Asia/Thimphu', 'tz_name': 'Bhutan Time', 'gmt_offset_name': 'UTC+06:00', 'gmt_offset': 21600, 'abbreviation': 'BTT'}, {'id': 'k4otrjiqdwaku29', 'zone_name': 'Asia/Brunei', 'tz_name': 'Brunei Darussalam Time', 'gmt_offset_name': 'UTC+08:00', 'gmt_offset': 28800, 'abbreviation': 'BNT'}, {'id': 'uwte8oz4ubcd6sv', 'zone_name': 'Asia/Phnom_Penh', 'tz_name': 'Indochina Time', 'gmt_offset_name': 'UTC+07:00', 'gmt_offset': 25200, 'abbreviation': 'ICT'}, {'id': '35sighs3jtb2sjo', 'zone_name': 'Asia/Shanghai', 'tz_name': 'China Standard Time', 'gmt_offset_name': 'UTC+08:00', 'gmt_offset': 28800, 'abbreviation': 'CST'}, {'id': '52caednxdaxlaa8', 'zone_name': 'Asia/Urumqi', 'tz_name': 'China Standard Time', 'gmt_offset_name': 'UTC+06:00', 'gmt_offset': 21600, 'abbreviation': 'XJT'}, {'id': '20nd3qdh9q5mq2t', 'zone_name': 'Asia/Famagusta', 'tz_name': 'Eastern European Time', 'gmt_offset_name': 'UTC+02:00', 'gmt_offset': 7200, 'abbreviation': 'EET'}, {'id': 'iilr1sgnywa92v8', 'zone_name': 'Asia/Nicosia', 'tz_name': 'Eastern European Time', 'gmt_offset_name': 'UTC+02:00', 'gmt_offset': 7200, 'abbreviation': 'EET'}, {'id"
    },
    "{'keyword': 'Bangladesh'}": {
        "error": "",
        "response": "{'page': 1, 'total_items': 0, 'total_pages': 0, 'total': 0, 'data': []}"
    },
    "{'keyword': 'Dhaka'}": {
        "error": "",
        "response": "{'page': 1, 'total_items': 1, 'total_pages': 1, 'total': 1, 'data': [{'id': 'whva1xcxcxqgz9c', 'zone_name': 'Asia/Dhaka', 'tz_name': 'Bangladesh Standard Time', 'gmt_offset_name': 'UTC+06:00', 'gmt_offset': 21600, 'abbreviation': 'BDT'}]}"
    },
    "{'keyword': 'Florence'}": {
        "error": "",
        "response": "{'page': 1, 'total_items': 0, 'total_pages': 0, 'total': 0, 'data': []}"
    },
    "{'keyword': 'Italy'}": {
        "error": "",
        "response": "{'page': 1, 'total_items': 0, 'total_pages': 0, 'total': 0, 'data': []}"
    }
}