{
    "{'is_id': '2'}": {
        "error": "",
        "response": {
            "id": 2,
            "abbreviation": "BOS",
            "city": "Boston",
            "conference": "East",
            "division": "Atlantic",
            "full_name": "Boston Celtics",
            "name": "Celtics"
        }
    },
    "{'is_id': '13'}": {
        "error": "",
        "response": {
            "id": 13,
            "abbreviation": "LAC",
            "city": "LA",
            "conference": "West",
            "division": "Pacific",
            "full_name": "LA Clippers",
            "name": "Clippers"
        }
    },
    "{'is_id': '17'}": {
        "error": "",
        "response": {
            "id": 17,
            "abbreviation": "MIL",
            "city": "Milwaukee",
            "conference": "East",
            "division": "Central",
            "full_name": "Milwaukee Bucks",
            "name": "Bucks"
        }
    },
    "{'is_id': '21'}": {
        "error": "",
        "response": {
            "id": 21,
            "abbreviation": "OKC",
            "city": "Oklahoma City",
            "conference": "West",
            "division": "Northwest",
            "full_name": "Oklahoma City Thunder",
            "name": "Thunder"
        }
    },
    "{'is_id': '27'}": {
        "error": "",
        "response": {
            "id": 27,
            "abbreviation": "SAS",
            "city": "San Antonio",
            "conference": "West",
            "division": "Southwest",
            "full_name": "San Antonio Spurs",
            "name": "Spurs"
        }
    },
    "{'is_id': '30'}": {
        "error": "",
        "response": {
            "id": 30,
            "abbreviation": "WAS",
            "city": "Washington",
            "conference": "East",
            "division": "Southeast",
            "full_name": "Washington Wizards",
            "name": "Wizards"
        }
    },
    "{'is_id': '22'}": {
        "error": "",
        "response": {
            "id": 22,
            "abbreviation": "ORL",
            "city": "Orlando",
            "conference": "East",
            "division": "Southeast",
            "full_name": "Orlando Magic",
            "name": "Magic"
        }
    },
    "{'is_id': '23'}": {
        "error": "",
        "response": {
            "id": 23,
            "abbreviation": "PHI",
            "city": "Philadelphia",
            "conference": "East",
            "division": "Atlantic",
            "full_name": "Philadelphia 76ers",
            "name": "76ers"
        }
    },
    "{'is_id': '25'}": {
        "error": "",
        "response": {
            "id": 25,
            "abbreviation": "POR",
            "city": "Portland",
            "conference": "West",
            "division": "Northwest",
            "full_name": "Portland Trail Blazers",
            "name": "Trail Blazers"
        }
    },
    "{'is_id': '14'}": {
        "error": "",
        "response": {
            "id": 14,
            "abbreviation": "LAL",
            "city": "Los Angeles",
            "conference": "West",
            "division": "Pacific",
            "full_name": "Los Angeles Lakers",
            "name": "Lakers"
        }
    },
    "{'is_id': '16'}": {
        "error": "",
        "response": {
            "id": 16,
            "abbreviation": "MIA",
            "city": "Miami",
            "conference": "East",
            "division": "Southeast",
            "full_name": "Miami Heat",
            "name": "Heat"
        }
    },
    "{'is_id': '15'}": {
        "error": "",
        "response": {
            "id": 15,
            "abbreviation": "MEM",
            "city": "Memphis",
            "conference": "West",
            "division": "Southwest",
            "full_name": "Memphis Grizzlies",
            "name": "Grizzlies"
        }
    },
    "{'is_id': '28'}": {
        "error": "",
        "response": {
            "id": 28,
            "abbreviation": "TOR",
            "city": "Toronto",
            "conference": "East",
            "division": "Atlantic",
            "full_name": "Toronto Raptors",
            "name": "Raptors"
        }
    },
    "{'is_id': '19'}": {
        "error": "",
        "response": {
            "id": 19,
            "abbreviation": "NOP",
            "city": "New Orleans",
            "conference": "West",
            "division": "Southwest",
            "full_name": "New Orleans Pelicans",
            "name": "Pelicans"
        }
    },
    "{'is_id': '9'}": {
        "error": "",
        "response": {
            "id": 9,
            "abbreviation": "DET",
            "city": "Detroit",
            "conference": "East",
            "division": "Central",
            "full_name": "Detroit Pistons",
            "name": "Pistons"
        }
    },
    "{'is_id': '4'}": {
        "error": "",
        "response": {
            "id": 4,
            "abbreviation": "CHA",
            "city": "Charlotte",
            "conference": "East",
            "division": "Southeast",
            "full_name": "Charlotte Hornets",
            "name": "Hornets"
        }
    },
    "{'is_id': '1'}": {
        "error": "",
        "response": {
            "id": 1,
            "abbreviation": "ATL",
            "city": "Atlanta",
            "conference": "East",
            "division": "Southeast",
            "full_name": "Atlanta Hawks",
            "name": "Hawks"
        }
    },
    "{'is_id': '3'}": {
        "error": "",
        "response": {
            "id": 3,
            "abbreviation": "BKN",
            "city": "Brooklyn",
            "conference": "East",
            "division": "Atlantic",
            "full_name": "Brooklyn Nets",
            "name": "Nets"
        }
    },
    "{'is_id': '29'}": {
        "error": "",
        "response": {
            "id": 29,
            "abbreviation": "UTA",
            "city": "Utah",
            "conference": "West",
            "division": "Northwest",
            "full_name": "Utah Jazz",
            "name": "Jazz"
        }
    },
    "{'is_id': '12'}": {
        "error": "",
        "response": {
            "id": 12,
            "abbreviation": "IND",
            "city": "Indiana",
            "conference": "East",
            "division": "Central",
            "full_name": "Indiana Pacers",
            "name": "Pacers"
        }
    },
    "{'is_id': '11'}": {
        "error": "",
        "response": {
            "id": 11,
            "abbreviation": "HOU",
            "city": "Houston",
            "conference": "West",
            "division": "Southwest",
            "full_name": "Houston Rockets",
            "name": "Rockets"
        }
    },
    "{'is_id': '10'}": {
        "error": "",
        "response": {
            "id": 10,
            "abbreviation": "GSW",
            "city": "Golden State",
            "conference": "West",
            "division": "Pacific",
            "full_name": "Golden State Warriors",
            "name": "Warriors"
        }
    },
    "{'is_id': '8'}": {
        "error": "",
        "response": {
            "id": 8,
            "abbreviation": "DEN",
            "city": "Denver",
            "conference": "West",
            "division": "Northwest",
            "full_name": "Denver Nuggets",
            "name": "Nuggets"
        }
    },
    "{'is_id': '5'}": {
        "error": "",
        "response": {
            "id": 5,
            "abbreviation": "CHI",
            "city": "Chicago",
            "conference": "East",
            "division": "Central",
            "full_name": "Chicago Bulls",
            "name": "Bulls"
        }
    },
    "{'is_id': '6'}": {
        "error": "",
        "response": {
            "id": 6,
            "abbreviation": "CLE",
            "city": "Cleveland",
            "conference": "East",
            "division": "Central",
            "full_name": "Cleveland Cavaliers",
            "name": "Cavaliers"
        }
    },
    "{'is_id': '7'}": {
        "error": "",
        "response": {
            "id": 7,
            "abbreviation": "DAL",
            "city": "Dallas",
            "conference": "West",
            "division": "Southwest",
            "full_name": "Dallas Mavericks",
            "name": "Mavericks"
        }
    },
    "{'is_id': '24'}": {
        "error": "",
        "response": {
            "id": 24,
            "abbreviation": "PHX",
            "city": "Phoenix",
            "conference": "West",
            "division": "Pacific",
            "full_name": "Phoenix Suns",
            "name": "Suns"
        }
    },
    "{'is_id': '20'}": {
        "error": "",
        "response": {
            "id": 20,
            "abbreviation": "NYK",
            "city": "New York",
            "conference": "East",
            "division": "Atlantic",
            "full_name": "New York Knicks",
            "name": "Knicks"
        }
    },
    "{'is_id': '47'}": {
        "error": "",
        "response": {
            "id": 47,
            "abbreviation": "AND",
            "city": "",
            "conference": "    ",
            "division": "",
            "full_name": "Anderson Packers",
            "name": "Anderson Packers"
        }
    },
    "{'is_id': '18'}": {
        "error": "",
        "response": {
            "id": 18,
            "abbreviation": "MIN",
            "city": "Minnesota",
            "conference": "West",
            "division": "Northwest",
            "full_name": "Minnesota Timberwolves",
            "name": "Timberwolves"
        }
    },
    "{'is_id': '26'}": {
        "error": "",
        "response": {
            "id": 26,
            "abbreviation": "SAC",
            "city": "Sacramento",
            "conference": "West",
            "division": "Pacific",
            "full_name": "Sacramento Kings",
            "name": "Kings"
        }
    },
    "{'is_id': '40'}": {
        "error": "",
        "response": {
            "id": 40,
            "abbreviation": "DEF",
            "city": "",
            "conference": "    ",
            "division": "",
            "full_name": "Detroit Falcons",
            "name": "Detroit Falcons"
        }
    },
    "{'is_id': ''}": {
        "error": "",
        "response": {
            "data": [
                {
                    "id": 1,
                    "abbreviation": "ATL",
                    "city": "Atlanta",
                    "conference": "East",
                    "division": "Southeast",
                    "full_name": "Atlanta Hawks",
                    "name": "Hawks"
                },
                {
                    "id": 2,
                    "abbreviation": "BOS",
                    "city": "Boston",
                    "conference": "East",
                    "division": "Atlantic",
                    "full_name": "Boston Celtics",
                    "name": "Celtics"
                },
                {
                    "id": 3,
                    "abbreviation": "BKN",
                    "city": "Brooklyn",
                    "conference": "East",
                    "division": "Atlantic",
                    "full_name": "Brooklyn Nets",
                    "name": "Nets"
                },
                {
                    "id": 4,
                    "abbreviation": "CHA",
                    "city": "Charlotte",
                    "conference": "East",
                    "division": "Southeast",
                    "full_name": "Charlotte Hornets",
                    "name": "Hornets"
                },
                {
                    "id": 5,
                    "abbreviation": "CHI",
                    "city": "Chicago",
                    "conference": "East",
                    "division": "Central",
                    "full_name": "Chicago Bulls",
                    "name": "Bulls"
                },
                {
                    "id": 6,
                    "abbreviation": "CLE",
                    "city": "Cleveland",
                    "conference": "East",
                    "division": "Central",
                    "full_name": "Cleveland Cavaliers",
                    "name": "Cavaliers"
                },
                {
                    "id": 7,
                    "abbreviation": "DAL",
                    "city": "Dallas",
                    "conference": "West",
                    "division": "Southwest",
                    "full_name": "Dallas Mavericks",
                    "name": "Mavericks"
                },
                {
                    "id": 8,
                    "abbreviation": "DEN",
                    "city": "Denver",
                    "conference": "West",
                    "division": "Northwest",
                    "full_name": "Denver Nuggets",
                    "name": "Nuggets"
                },
                {
                    "id": 9,
                    "abbreviation": "DET",
                    "city": "Detroit",
                    "conference": "East",
                    "division": "Central",
                    "full_name": "Detroit Pistons",
                    "name": "Pistons"
                },
                {
                    "id": 10,
                    "abbreviation": "GSW",
                    "city": "Golden State",
                    "conference": "West",
                    "division": "Pacific",
                    "full_name": "Golden State Warriors",
                    "name": "Warriors"
                },
                {
                    "id": 11,
                    "abbreviation": "HOU",
                    "city": "Houston",
                    "conference": "West",
                    "division": "Southwest",
                    "full_name": "Houston Rockets",
                    "name": "Rockets"
                },
                {
                    "id": 12,
                    "abbreviation": "IND",
                    "city": "Indiana",
                    "conference": "East",
                    "division": "Central",
                    "full_name": "Indiana Pacers",
                    "name": "Pacers"
                },
                {
                    "id": 13,
                    "abbreviation": "LAC",
                    "city": "LA",
                    "conference": "West",
                    "division": "Pacific",
                    "full_name": "LA Clippers",
                    "name": "Clippers"
                },
                {
                    "id": 14,
                    "abbreviation": "LAL",
                    "city": "Los Angeles",
                    "conference": "West",
                    "division": "Pacific",
                    "full_name": "Los Angeles Lakers",
                    "name": "Lakers"
                },
                {
                    "id": 15,
                    "abbreviation": "MEM",
                    "city": "Memphis",
                    "conference": "West",
                    "division": "Southwest",
                    "full_name": "Memphis Grizzlies",
                    "name": "Grizzlies"
                },
                {
                    "id": 16,
                    "abbreviation": "MIA",
                    "city": "Miami",
                    "conference": "East",
                    "division": "Southeast",
                    "full_name": "Miami Heat",
                    "name": "Heat"
                },
                {
                    "id": 17,
                    "abbreviation": "MIL",
                    "city": "Milwaukee",
                    "conference": "East",
                    "division": "Central",
                    "full_name": "Milwaukee Bucks",
                    "name": "Bucks"
                },
                {
                    "id": 18,
                    "abbreviation": "MIN",
                    "city": "Minnesota",
                    "conference": "West",
                    "division": "Northwest",
                    "full_name": "Minnesota Timberwolves",
                    "name": "Timberwolves"
                },
                {
                    "id": 19,
                    "abbreviation": "NOP",
                    "city": "New Orleans",
                    "conference": "West",
                    "division": "Southwest",
                    "full_name": "New Orleans Pelicans",
                    "name": "Pelicans"
                },
                {
                    "id": 20,
                    "abbreviation": "NYK",
                    "city": "New York",
                    "conference": "East",
                    "division": "Atlantic",
                    "full_name": "New York Knicks",
                    "name": "Knicks"
                },
                {
                    "id": 21,
                    "abbreviation": "OKC",
                    "city": "Oklahoma City",
                    "conference": "West",
                    "division": "Northwest",
                    "full_name": "Oklahoma City Thunder",
                    "name": "Thunder"
                },
                {
                    "id": 22,
                    "abbreviation": "ORL",
                    "city": "Orlando",
                    "conference": "East",
                    "division": "Southeast",
                    "full_name": "Orlando Magic",
                    "name": "Magic"
                },
                {
                    "id": 23,
                    "abbreviation": "PHI",
                    "city": "Philadelphia",
                    "conference": "East",
                    "division": "Atlantic",
                    "full_name": "Philadelphia 76ers",
                    "name": "76ers"
                },
                {
                    "id": 24,
                    "abbreviation": "PHX",
                    "city": "Phoenix",
                    "conference": "West",
                    "division": "Pacific",
                    "full_name": "Phoenix Suns",
                    "name": "Suns"
                },
                {
                    "id": 25,
                    "abbreviation": "POR",
                    "city": "Portland",
                    "conference": "West",
                    "division": "Northwest",
                    "full_name": "Portland Trail Blazers",
                    "name": "Trail Blazers"
                },
                {
                    "id": 26,
                    "abbreviation": "SAC",
                    "city": "Sacramento",
                    "conference": "West",
                    "division": "Pacific",
                    "full_name": "Sacramento Kings",
                    "name": "Kings"
                },
                {
                    "id": 27,
                    "abbreviation": "SAS",
                    "city": "San Antonio",
                    "conference": "West",
                    "division": "Southwest",
                    "full_name": "San Antonio Spurs",
                    "name": "Spurs"
                },
                {
                    "id": 28,
                    "abbreviation": "TOR",
                    "city": "Toronto",
                    "conference": "East",
                    "division": "Atlantic",
                    "full_name": "Toronto Raptors",
                    "name": "Raptors"
                },
                {
                    "id": 29,
                    "abbreviation": "UTA",
                    "city": "Utah",
                    "conference": "West",
                    "division": "Northwest",
                    "full_name": "Utah Jazz",
                    "name": "Jazz"
                },
                {
                    "id": 30,
                    "abbreviation": "WAS",
                    "city": "Washington",
                    "conference": "East",
                    "division": "Southeast",
                    "full_name": "Washington Wizards",
                    "name": "Wizards"
                }
            ],
            "meta": {
                "total_pages": 2,
                "current_page": 1,
                "next_page": 2,
                "per_page": 30,
                "total_count": 45
            }
        }
    },
    "{'is_id': '44'}": {
        "error": "",
        "response": {
            "id": 44,
            "abbreviation": "PIT",
            "city": "",
            "conference": "    ",
            "division": "",
            "full_name": "Pittsburgh Ironmen",
            "name": "Pittsburgh Ironmen"
        }
    },
    "{'is_id': '41'}": {
        "error": "",
        "response": {
            "id": 41,
            "abbreviation": "HUS",
            "city": "",
            "conference": "    ",
            "division": "",
            "full_name": "Toronto Huskies",
            "name": "Toronto Huskies"
        }
    },
    "{'is_id': '38'}": {
        "error": "",
        "response": {
            "id": 38,
            "abbreviation": "BOM",
            "city": "",
            "conference": "    ",
            "division": "",
            "full_name": "St. Louis Bombers",
            "name": "St. Louis Bombers"
        }
    },
    "{'is_id': '45'}": {
        "error": "",
        "response": {
            "id": 45,
            "abbreviation": "BAL",
            "city": "",
            "conference": "    ",
            "division": "",
            "full_name": "Baltimore Bullets",
            "name": "Baltimore Bullets"
        }
    },
    "{'is_id': '8ebc9f61-1d86-4416-b141-5b68b0ef8874'}": {
        "error": "",
        "response": {
            "id": 8,
            "abbreviation": "DEN",
            "city": "Denver",
            "conference": "West",
            "division": "Northwest",
            "full_name": "Denver Nuggets",
            "name": "Nuggets"
        }
    },
    "{'is_id': '42'}": {
        "error": "",
        "response": {
            "id": 42,
            "abbreviation": "WAS",
            "city": "",
            "conference": "    ",
            "division": "",
            "full_name": "Washington Capitols",
            "name": "Washington Capitols"
        }
    },
    "{'is_id': '50'}": {
        "error": "",
        "response": {
            "id": 50,
            "abbreviation": "DN",
            "city": "",
            "conference": "    ",
            "division": "",
            "full_name": "Denver Nuggets",
            "name": "Denver Nuggets"
        }
    },
    "{'is_id': '43'}": {
        "error": "",
        "response": {
            "id": 43,
            "abbreviation": "PRO",
            "city": "",
            "conference": "    ",
            "division": "",
            "full_name": "Providence Steamrollers",
            "name": "Providence Steamrollers"
        }
    },
    "{'is_id': '49'}": {
        "error": "",
        "response": {
            "id": 49,
            "abbreviation": "INO",
            "city": "",
            "conference": "    ",
            "division": "",
            "full_name": "Indianapolis Olympians",
            "name": "Indianapolis Olympians"
        }
    },
    "{'is_id': '6ea0d2ef-6dd0-4adb-ad32-f7f3db58ccbe'}": {
        "error": "",
        "response": {
            "id": 6,
            "abbreviation": "CLE",
            "city": "Cleveland",
            "conference": "East",
            "division": "Central",
            "full_name": "Cleveland Cavaliers",
            "name": "Cavaliers"
        }
    },
    "{'is_id': '37'}": {
        "error": "",
        "response": {
            "id": 37,
            "abbreviation": "CHS",
            "city": "",
            "conference": "    ",
            "division": "",
            "full_name": "Chicago Stags",
            "name": "Chicago Stags"
        }
    },
    "{'is_id': '000001'}": {
        "error": "",
        "response": {
            "id": 1,
            "abbreviation": "ATL",
            "city": "Atlanta",
            "conference": "East",
            "division": "Southeast",
            "full_name": "Atlanta Hawks",
            "name": "Hawks"
        }
    }
}