{
    "{'recitation_id': 1, 'juz_number': 15}": {
        "error": "",
        "response": "{'audio_files': [{'verse_key': '17:1', 'url': 'AbdulBaset/Mujawwad/mp3/017001.mp3'}, {'verse_key': '17:2', 'url': 'AbdulBaset/Mujawwad/mp3/017002.mp3'}, {'verse_key': '17:3', 'url': 'AbdulBaset/Mujawwad/mp3/017003.mp3'}, {'verse_key': '17:4', 'url': 'AbdulBaset/Mujawwad/mp3/017004.mp3'}, {'verse_key': '17:5', 'url': 'AbdulBaset/Mujawwad/mp3/017005.mp3'}, {'verse_key': '17:6', 'url': 'AbdulBaset/Mujawwad/mp3/017006.mp3'}, {'verse_key': '17:7', 'url': 'AbdulBaset/Mujawwad/mp3/017007.mp3'}, {'verse_key': '17:8', 'url': 'AbdulBaset/Mujawwad/mp3/017008.mp3'}, {'verse_key': '17:9', 'url': 'AbdulBaset/Mujawwad/mp3/017009.mp3'}, {'verse_key': '17:10', 'url': 'AbdulBaset/Mujawwad/mp3/017010.mp3'}], 'pagination': {'per_page': 10, 'current_page': 1, 'next_page': 2, 'total_pages': 19, 'total_records': 185}}"
    },
    "{'juz_number': 1, 'recitation_id': 1}": {
        "error": "",
        "response": {
            "audio_files": [
                {
                    "verse_key": "1:1",
                    "url": "AbdulBaset/Mujawwad/mp3/001001.mp3"
                },
                {
                    "verse_key": "1:2",
                    "url": "AbdulBaset/Mujawwad/mp3/001002.mp3"
                },
                {
                    "verse_key": "1:3",
                    "url": "AbdulBaset/Mujawwad/mp3/001003.mp3"
                },
                {
                    "verse_key": "1:4",
                    "url": "AbdulBaset/Mujawwad/mp3/001004.mp3"
                },
                {
                    "verse_key": "1:5",
                    "url": "AbdulBaset/Mujawwad/mp3/001005.mp3"
                },
                {
                    "verse_key": "1:6",
                    "url": "AbdulBaset/Mujawwad/mp3/001006.mp3"
                },
                {
                    "verse_key": "1:7",
                    "url": "AbdulBaset/Mujawwad/mp3/001007.mp3"
                },
                {
                    "verse_key": "2:1",
                    "url": "AbdulBaset/Mujawwad/mp3/002001.mp3"
                },
                {
                    "verse_key": "2:2",
                    "url": "AbdulBaset/Mujawwad/mp3/002002.mp3"
                },
                {
                    "verse_key": "2:3",
                    "url": "AbdulBaset/Mujawwad/mp3/002003.mp3"
                }
            ],
            "pagination": {
                "per_page": 10,
                "current_page": 1,
                "next_page": 2,
                "total_pages": 15,
                "total_records": 148
            }
        }
    },
    "{'recitation_id': 5, 'juz_number': 15}": {
        "error": "",
        "response": {
            "audio_files": [
                {
                    "verse_key": "17:1",
                    "url": "Rifai/mp3/017001.mp3"
                },
                {
                    "verse_key": "17:2",
                    "url": "Rifai/mp3/017002.mp3"
                },
                {
                    "verse_key": "17:3",
                    "url": "Rifai/mp3/017003.mp3"
                },
                {
                    "verse_key": "17:4",
                    "url": "Rifai/mp3/017004.mp3"
                },
                {
                    "verse_key": "17:5",
                    "url": "Rifai/mp3/017005.mp3"
                },
                {
                    "verse_key": "17:6",
                    "url": "Rifai/mp3/017006.mp3"
                },
                {
                    "verse_key": "17:7",
                    "url": "Rifai/mp3/017007.mp3"
                },
                {
                    "verse_key": "17:8",
                    "url": "Rifai/mp3/017008.mp3"
                },
                {
                    "verse_key": "17:9",
                    "url": "Rifai/mp3/017009.mp3"
                },
                {
                    "verse_key": "17:10",
                    "url": "Rifai/mp3/017010.mp3"
                }
            ],
            "pagination": {
                "per_page": 10,
                "current_page": 1,
                "next_page": 2,
                "total_pages": 19,
                "total_records": 185
            }
        }
    },
    "{'recitation_id': 1, 'juz_number': 2}": {
        "error": "",
        "response": {
            "audio_files": [
                {
                    "verse_key": "2:142",
                    "url": "AbdulBaset/Mujawwad/mp3/002142.mp3"
                },
                {
                    "verse_key": "2:143",
                    "url": "AbdulBaset/Mujawwad/mp3/002143.mp3"
                },
                {
                    "verse_key": "2:144",
                    "url": "AbdulBaset/Mujawwad/mp3/002144.mp3"
                },
                {
                    "verse_key": "2:145",
                    "url": "AbdulBaset/Mujawwad/mp3/002145.mp3"
                },
                {
                    "verse_key": "2:146",
                    "url": "AbdulBaset/Mujawwad/mp3/002146.mp3"
                },
                {
                    "verse_key": "2:147",
                    "url": "AbdulBaset/Mujawwad/mp3/002147.mp3"
                },
                {
                    "verse_key": "2:148",
                    "url": "AbdulBaset/Mujawwad/mp3/002148.mp3"
                },
                {
                    "verse_key": "2:149",
                    "url": "AbdulBaset/Mujawwad/mp3/002149.mp3"
                },
                {
                    "verse_key": "2:150",
                    "url": "AbdulBaset/Mujawwad/mp3/002150.mp3"
                },
                {
                    "verse_key": "2:151",
                    "url": "AbdulBaset/Mujawwad/mp3/002151.mp3"
                }
            ],
            "pagination": {
                "per_page": 10,
                "current_page": 1,
                "next_page": 2,
                "total_pages": 12,
                "total_records": 111
            }
        }
    },
    "{'juz_number': 2, 'recitation_id': 5}": {
        "error": "",
        "response": ""
    },
    "{'recitation_id': 10, 'juz_number': 15}": {
        "error": "",
        "response": "{'audio_files': [{'verse_key': '17:1', 'url': 'Shuraym/mp3/017001.mp3'}, {'verse_key': '17:2', 'url': 'Shuraym/mp3/017002.mp3'}, {'verse_key': '17:3', 'url': 'Shuraym/mp3/017003.mp3'}, {'verse_key': '17:4', 'url': 'Shuraym/mp3/017004.mp3'}, {'verse_key': '17:5', 'url': 'Shuraym/mp3/017005.mp3'}, {'verse_key': '17:6', 'url': 'Shuraym/mp3/017006.mp3'}, {'verse_key': '17:7', 'url': 'Shuraym/mp3/017007.mp3'}, {'verse_key': '17:8', 'url': 'Shuraym/mp3/017008.mp3'}, {'verse_key': '17:9', 'url': 'Shuraym/mp3/017009.mp3'}, {'verse_key': '17:10', 'url': 'Shuraym/mp3/017010.mp3'}], 'pagination': {'per_page': 10, 'current_page': 1, 'next_page': 2, 'total_pages': 19, 'total_records': 185}}"
    },
    "{'recitation_id': 5, 'juz_number': 30}": {
        "error": "",
        "response": "{'audio_files': [{'verse_key': '78:1', 'url': 'Rifai/mp3/078001.mp3'}, {'verse_key': '78:2', 'url': 'Rifai/mp3/078002.mp3'}, {'verse_key': '78:3', 'url': 'Rifai/mp3/078003.mp3'}, {'verse_key': '78:4', 'url': 'Rifai/mp3/078004.mp3'}, {'verse_key': '78:5', 'url': 'Rifai/mp3/078005.mp3'}, {'verse_key': '78:6', 'url': 'Rifai/mp3/078006.mp3'}, {'verse_key': '78:7', 'url': 'Rifai/mp3/078007.mp3'}, {'verse_key': '78:8', 'url': 'Rifai/mp3/078008.mp3'}, {'verse_key': '78:9', 'url': 'Rifai/mp3/078009.mp3'}, {'verse_key': '78:10', 'url': 'Rifai/mp3/078010.mp3'}], 'pagination': {'per_page': 10, 'current_page': 1, 'next_page': 2, 'total_pages': 57, 'total_records': 564}}"
    },
    "{'recitation_id': 7, 'juz_number': 5}": {
        "error": "",
        "response": ""
    },
    "{'recitation_id': 7, 'juz_number': 10}": {
        "error": "",
        "response": "{'audio_files': [{'verse_key': '8:41', 'url': 'Alafasy/mp3/008041.mp3'}, {'verse_key': '8:42', 'url': 'Alafasy/mp3/008042.mp3'}, {'verse_key': '8:43', 'url': 'Alafasy/mp3/008043.mp3'}, {'verse_key': '8:44', 'url': 'Alafasy/mp3/008044.mp3'}, {'verse_key': '8:45', 'url': 'Alafasy/mp3/008045.mp3'}, {'verse_key': '8:46', 'url': 'Alafasy/mp3/008046.mp3'}, {'verse_key': '8:47', 'url': 'Alafasy/mp3/008047.mp3'}, {'verse_key': '8:48', 'url': 'Alafasy/mp3/008048.mp3'}, {'verse_key': '8:49', 'url': 'Alafasy/mp3/008049.mp3'}, {'verse_key': '8:50', 'url': 'Alafasy/mp3/008050.mp3'}], 'pagination': {'per_page': 10, 'current_page': 1, 'next_page': 2, 'total_pages': 13, 'total_records': 127}}"
    },
    "{'recitation_id': 7, 'juz_number': 15}": {
        "error": "",
        "response": ""
    }
}