{
    "{'recitation_id': 7, 'page_number': 1}": {
        "error": "",
        "response": {
            "audio_files": [
                {
                    "verse_key": "1:1",
                    "url": "Alafasy/mp3/001001.mp3"
                },
                {
                    "verse_key": "1:2",
                    "url": "Alafasy/mp3/001002.mp3"
                },
                {
                    "verse_key": "1:3",
                    "url": "Alafasy/mp3/001003.mp3"
                },
                {
                    "verse_key": "1:4",
                    "url": "Alafasy/mp3/001004.mp3"
                },
                {
                    "verse_key": "1:5",
                    "url": "Alafasy/mp3/001005.mp3"
                },
                {
                    "verse_key": "1:6",
                    "url": "Alafasy/mp3/001006.mp3"
                },
                {
                    "verse_key": "1:7",
                    "url": "Alafasy/mp3/001007.mp3"
                }
            ],
            "pagination": {
                "per_page": 10,
                "current_page": 1,
                "next_page": null,
                "total_pages": 1,
                "total_records": 7
            }
        }
    },
    "{'recitation_id': 7, 'page_number': 3}": {
        "error": "",
        "response": {
            "audio_files": [
                {
                    "verse_key": "2:6",
                    "url": "Alafasy/mp3/002006.mp3"
                },
                {
                    "verse_key": "2:7",
                    "url": "Alafasy/mp3/002007.mp3"
                },
                {
                    "verse_key": "2:8",
                    "url": "Alafasy/mp3/002008.mp3"
                },
                {
                    "verse_key": "2:9",
                    "url": "Alafasy/mp3/002009.mp3"
                },
                {
                    "verse_key": "2:10",
                    "url": "Alafasy/mp3/002010.mp3"
                },
                {
                    "verse_key": "2:11",
                    "url": "Alafasy/mp3/002011.mp3"
                },
                {
                    "verse_key": "2:12",
                    "url": "Alafasy/mp3/002012.mp3"
                },
                {
                    "verse_key": "2:13",
                    "url": "Alafasy/mp3/002013.mp3"
                },
                {
                    "verse_key": "2:14",
                    "url": "Alafasy/mp3/002014.mp3"
                },
                {
                    "verse_key": "2:15",
                    "url": "Alafasy/mp3/002015.mp3"
                }
            ],
            "pagination": {
                "per_page": 10,
                "current_page": 1,
                "next_page": 2,
                "total_pages": 2,
                "total_records": 11
            }
        }
    },
    "{'recitation_id': 7, 'page_number': 4}": {
        "error": "",
        "response": {
            "audio_files": [
                {
                    "verse_key": "2:17",
                    "url": "Alafasy/mp3/002017.mp3"
                },
                {
                    "verse_key": "2:18",
                    "url": "Alafasy/mp3/002018.mp3"
                },
                {
                    "verse_key": "2:19",
                    "url": "Alafasy/mp3/002019.mp3"
                },
                {
                    "verse_key": "2:20",
                    "url": "Alafasy/mp3/002020.mp3"
                },
                {
                    "verse_key": "2:21",
                    "url": "Alafasy/mp3/002021.mp3"
                },
                {
                    "verse_key": "2:22",
                    "url": "Alafasy/mp3/002022.mp3"
                },
                {
                    "verse_key": "2:23",
                    "url": "Alafasy/mp3/002023.mp3"
                },
                {
                    "verse_key": "2:24",
                    "url": "Alafasy/mp3/002024.mp3"
                }
            ],
            "pagination": {
                "per_page": 10,
                "current_page": 1,
                "next_page": null,
                "total_pages": 1,
                "total_records": 8
            }
        }
    },
    "{'recitation_id': 3, 'page_number': 100}": {
        "error": "",
        "response": {
            "audio_files": [
                {
                    "verse_key": "4:135",
                    "url": "Sudais/mp3/004135.mp3"
                },
                {
                    "verse_key": "4:136",
                    "url": "Sudais/mp3/004136.mp3"
                },
                {
                    "verse_key": "4:137",
                    "url": "Sudais/mp3/004137.mp3"
                },
                {
                    "verse_key": "4:138",
                    "url": "Sudais/mp3/004138.mp3"
                },
                {
                    "verse_key": "4:139",
                    "url": "Sudais/mp3/004139.mp3"
                },
                {
                    "verse_key": "4:140",
                    "url": "Sudais/mp3/004140.mp3"
                }
            ],
            "pagination": {
                "per_page": 10,
                "current_page": 1,
                "next_page": null,
                "total_pages": 1,
                "total_records": 6
            }
        }
    },
    "{'recitation_id': 11, 'page_number': 1}": {
        "error": "",
        "response": {
            "audio_files": [
                {
                    "verse_key": "1:1",
                    "url": "//mirrors.quranicaudio.com/everyayah/Mohammad_al_Tablaway_128kbps/001001.mp3"
                },
                {
                    "verse_key": "1:2",
                    "url": "//mirrors.quranicaudio.com/everyayah/Mohammad_al_Tablaway_128kbps/001002.mp3"
                },
                {
                    "verse_key": "1:3",
                    "url": "//mirrors.quranicaudio.com/everyayah/Mohammad_al_Tablaway_128kbps/001003.mp3"
                },
                {
                    "verse_key": "1:4",
                    "url": "//mirrors.quranicaudio.com/everyayah/Mohammad_al_Tablaway_128kbps/001004.mp3"
                },
                {
                    "verse_key": "1:5",
                    "url": "//mirrors.quranicaudio.com/everyayah/Mohammad_al_Tablaway_128kbps/001005.mp3"
                },
                {
                    "verse_key": "1:6",
                    "url": "//mirrors.quranicaudio.com/everyayah/Mohammad_al_Tablaway_128kbps/001006.mp3"
                },
                {
                    "verse_key": "1:7",
                    "url": "//mirrors.quranicaudio.com/everyayah/Mohammad_al_Tablaway_128kbps/001007.mp3"
                }
            ],
            "pagination": {
                "per_page": 10,
                "current_page": 1,
                "next_page": null,
                "total_pages": 1,
                "total_records": 7
            }
        }
    },
    "{'recitation_id': 2, 'page_number': 200}": {
        "error": "",
        "response": {
            "audio_files": [
                {
                    "verse_key": "9:80",
                    "url": "AbdulBaset/Murattal/mp3/009080.mp3"
                },
                {
                    "verse_key": "9:81",
                    "url": "AbdulBaset/Murattal/mp3/009081.mp3"
                },
                {
                    "verse_key": "9:82",
                    "url": "AbdulBaset/Murattal/mp3/009082.mp3"
                },
                {
                    "verse_key": "9:83",
                    "url": "AbdulBaset/Murattal/mp3/009083.mp3"
                },
                {
                    "verse_key": "9:84",
                    "url": "AbdulBaset/Murattal/mp3/009084.mp3"
                },
                {
                    "verse_key": "9:85",
                    "url": "AbdulBaset/Murattal/mp3/009085.mp3"
                },
                {
                    "verse_key": "9:86",
                    "url": "AbdulBaset/Murattal/mp3/009086.mp3"
                }
            ],
            "pagination": {
                "per_page": 10,
                "current_page": 1,
                "next_page": null,
                "total_pages": 1,
                "total_records": 7
            }
        }
    },
    "{'recitation_id': 1, 'page_number': 1}": {
        "error": "",
        "response": {
            "audio_files": [
                {
                    "verse_key": "1:1",
                    "url": "AbdulBaset/Mujawwad/mp3/001001.mp3"
                },
                {
                    "verse_key": "1:2",
                    "url": "AbdulBaset/Mujawwad/mp3/001002.mp3"
                },
                {
                    "verse_key": "1:3",
                    "url": "AbdulBaset/Mujawwad/mp3/001003.mp3"
                },
                {
                    "verse_key": "1:4",
                    "url": "AbdulBaset/Mujawwad/mp3/001004.mp3"
                },
                {
                    "verse_key": "1:5",
                    "url": "AbdulBaset/Mujawwad/mp3/001005.mp3"
                },
                {
                    "verse_key": "1:6",
                    "url": "AbdulBaset/Mujawwad/mp3/001006.mp3"
                },
                {
                    "verse_key": "1:7",
                    "url": "AbdulBaset/Mujawwad/mp3/001007.mp3"
                }
            ],
            "pagination": {
                "per_page": 10,
                "current_page": 1,
                "next_page": null,
                "total_pages": 1,
                "total_records": 7
            }
        }
    },
    "{'recitation_id': 12, 'page_number': 15}": {
        "error": "",
        "response": "{'audio_files': [{'verse_key': '2:94', 'url': '//mirrors.quranicaudio.com/everyayah/Husary_Muallim_128kbps/002094.mp3'}, {'verse_key': '2:95', 'url': '//mirrors.quranicaudio.com/everyayah/Husary_Muallim_128kbps/002095.mp3'}, {'verse_key': '2:96', 'url': '//mirrors.quranicaudio.com/everyayah/Husary_Muallim_128kbps/002096.mp3'}, {'verse_key': '2:97', 'url': '//mirrors.quranicaudio.com/everyayah/Husary_Muallim_128kbps/002097.mp3'}, {'verse_key': '2:98', 'url': '//mirrors.quranicaudio.com/everyayah/Husary_Muallim_128kbps/002098.mp3'}, {'verse_key': '2:99', 'url': '//mirrors.quranicaudio.com/everyayah/Husary_Muallim_128kbps/002099.mp3'}, {'verse_key': '2:100', 'url': '//mirrors.quranicaudio.com/everyayah/Husary_Muallim_128kbps/002100.mp3'}, {'verse_key': '2:101', 'url': '//mirrors.quranicaudio.com/everyayah/Husary_Muallim_128kbps/002101.mp3'}], 'pagination': {'per_page': 10, 'current_page': 1, 'next_page': None, 'total_pages': 1, 'total_records': 8}}"
    },
    "{'recitation_id': 1, 'page_number': 15}": {
        "error": "",
        "response": ""
    }
}